IME05-12547 - Análise de Clusters
…
library(cluster)

Dados

O conjunto de dados Ruspini, que consiste em 75 pontos dividido em quatro grupos, ele é popular para ilustrar técnicas de agrupamento. É um conjunto de dados muito simples com clusters bem separados. O conjunto de dados original tem os pontos ordenados por grupo. Podemos embaralhar os dados (linhas) usando sample_frac.

data(ruspini, package="cluster")

Manipulando os dados

ruspini <- as_tibble(ruspini) %>% sample_frac()
ruspini

# A tibble: 75 × 2
       x     y
   <int> <int>
 1    70     4
 2    41   150
 3    32   149
 4    44   143
 5   117   115
 6    13    69
 7    44   156
 8    74    96
 9    63   139
10    52   152
# ℹ 65 more rows
…
Within cluster sum of squares by cluster:
[1] 2.658679 2.705477 3.641276 1.082373
 (between_SS / total_SS =  93.2 %)

Available components:

[1] "cluster"      "centers"      "totss"        "withinss"     "tot.withinss"
[6] "betweenss"    "size"         "iter"         "ifault"      

ruspini_clusters <- ruspini_norm %>% add_column(cluster = factor(km$cluster))
ruspini_clusters

# A tibble: 75 × 3
         x       y cluster
     <dbl>   <dbl> <fct>  
 1  0.496  -1.81   4      
 2 -0.455   1.19   1      
 3 -0.750   1.17   1      
 4 -0.357   1.05   1      
 5  2.04    0.472  3      
 6 -1.37   -0.473  2      
 7 -0.357   1.31   1      
 8  0.627   0.0816 3      
 9  0.266   0.964  1      
10 -0.0944  1.23   1      
# ℹ 65 more rows
…
Podemos extrair as atraibuições de cluster cortando o dendrograma em 4 partes e adicionando a identidade aos dados.

clusters <- cutree(hc, k = 4)
cluster_completo <- ruspini_norm %>%
  add_column(cluster = factor(clusters))
cluster_completo

# A tibble: 75 × 3
         x       y cluster
     <dbl>   <dbl> <fct>  
 1  0.496  -1.81   1      
 2 -0.455   1.19   2      
 3 -0.750   1.17   2      
 4 -0.357   1.05   2      
 5  2.04    0.472  3      
 6 -1.37   -0.473  4      
 7 -0.357   1.31   2      
 8  0.627   0.0816 3      
 9  0.266   0.964  2      
10 -0.0944  1.23   2      
# ℹ 65 more rows
…
