Arvores de Classificação - XGboost no Tidymodels – IME05-12547
…
Computational engine: xgboost 

xgb_grid <- grid_latin_hypercube(
  tree_depth(),
  min_n(),
  loss_reduction(),
  sample_size = sample_prop(),
  finalize(mtry(), conj_treino),
  learn_rate(),
  size = 30
)

xgb_grid

# A tibble: 30 × 6
   tree_depth min_n loss_reduction sample_size  mtry learn_rate
        <int> <int>          <dbl>       <dbl> <int>      <dbl>
 1          8    32       3.30e+ 0       0.324     2   1.61e- 5
 2         14    11       1.14e- 7       0.132     1   8.04e-10
 3         13     5       1.36e- 2       0.924     3   3.83e- 2
 4          6    37       3.22e- 6       0.666     4   2.75e- 5
 5          1    11       4.68e- 9       0.189     2   6.81e- 9
 6         13    17       5.55e- 2       0.563     2   1.11e-10
 7         15    16       1.74e-10       0.106     1   2.35e- 8
 8          3     4       3.68e- 3       0.385     3   5.14e- 6
 9          8    35       4.34e- 5       0.843     3   6.70e- 5
10         13    20       3.07e- 4       0.969     1   4.09e-10
# ℹ 20 more rows
…
# Tuning results
# 5-fold cross-validation using stratification 
# A tibble: 5 × 5
  splits              id    .metrics           .notes           .predictions
  <list>              <chr> <list>             <list>           <list>      
1 <split [6000/1500]> Fold1 <tibble [90 × 10]> <tibble [0 × 3]> <tibble>    
2 <split [6000/1500]> Fold2 <tibble [90 × 10]> <tibble [0 × 3]> <tibble>    
3 <split [6000/1500]> Fold3 <tibble [90 × 10]> <tibble [0 × 3]> <tibble>    
4 <split [6000/1500]> Fold4 <tibble [90 × 10]> <tibble [0 × 3]> <tibble>    
5 <split [6000/1500]> Fold5 <tibble [90 × 10]> <tibble [0 × 3]> <tibble>    

xgb_res %>% collect_metrics()

# A tibble: 90 × 12
    mtry min_n tree_depth learn_rate loss_reduction sample_size .metric    
   <int> <int>      <int>      <dbl>          <dbl>       <dbl> <chr>      
 1     2    32          8   1.61e- 5    3.30              0.324 accuracy   
 2     2    32          8   1.61e- 5    3.30              0.324 brier_class
 3     2    32          8   1.61e- 5    3.30              0.324 roc_auc    
 4     1    11         14   8.04e-10    0.000000114       0.132 accuracy   
 5     1    11         14   8.04e-10    0.000000114       0.132 brier_class
 6     1    11         14   8.04e-10    0.000000114       0.132 roc_auc    
 7     3     5         13   3.83e- 2    0.0136            0.924 accuracy   
 8     3     5         13   3.83e- 2    0.0136            0.924 brier_class
 9     3     5         13   3.83e- 2    0.0136            0.924 roc_auc    
10     4    37          6   2.75e- 5    0.00000322        0.666 accuracy   
# ℹ 80 more rows
# ℹ 5 more variables: .estimator <chr>, mean <dbl>, n <int>, std_err <dbl>,
#   .config <chr>
…
