IME05-12547 - KNN
…
#> 

#> ── Operations

#> • Centering and scaling for: balanco, receita | Trained

#> • Dummy variables from: estudante | Trained

Aplicando aos dados de treinamento

conj_treino_prep <- knn_tr_rec_prep %>% 
  bake(new_data = NULL)
conj_treino_prep

#> # A tibble: 7,500 × 4
#>    balanco receita inadimplente estudante_Sim
#>      <dbl>   <dbl> <fct>                <dbl>
#>  1 -0.226    0.814 Nao                      0
#>  2 -0.0453  -1.60  Nao                      1
#>  3  0.485   -0.130 Nao                      0
#>  4 -0.640    0.165 Nao                      0
#>  5 -0.110    0.372 Nao                      0
#>  6  0.166   -1.95  Nao                      1
#>  7 -0.0281  -0.644 Nao                      0
#>  8 -0.0629  -1.19  Nao                      1
#>  9 -1.73    -0.871 Nao                      1
#> 10  0.788   -1.52  Nao                      1
#> # ℹ 7,490 more rows

Aplicando aos dados de teste

conj_teste_prep <- knn_tr_rec_prep %>% 
  bake(new_data = conj_teste)
conj_teste_prep

#> # A tibble: 2,500 × 4
#>    balanco receita inadimplente estudante_Sim
#>      <dbl>   <dbl> <fct>                <dbl>
#>  1   0.665  0.297  Nao                      0
#>  2  -1.73  -0.317  Nao                      0
#>  3  -1.24  -0.393  Nao                      0
#>  4  -0.480  0.861  Nao                      0
#>  5  -1.14   0.865  Nao                      0
#>  6  -1.73   1.26   Nao                      0
#>  7  -1.26   1.27   Nao                      0
#>  8   0.238 -0.0782 Nao                      0
#>  9  -0.407 -0.227  Nao                      0
#> 10  -0.405  0.597  Nao                      0
#> # ℹ 2,490 more rows
…
