IME05-12547 - Arvores de Classificação - TidyModels
…
Definindo o grid de parâmetros

grid_AD <- grid_regular(cost_complexity(), tree_depth(), 
                        min_n(), levels = 4)
grid_AD

#> # A tibble: 64 × 3
#>    cost_complexity tree_depth min_n
#>              <dbl>      <int> <int>
#>  1    0.0000000001          1     2
#>  2    0.0000001             1     2
#>  3    0.0001                1     2
#>  4    0.1                   1     2
#>  5    0.0000000001          5     2
#>  6    0.0000001             5     2
#>  7    0.0001                5     2
#>  8    0.1                   5     2
#>  9    0.0000000001         10     2
#> 10    0.0000001            10     2
#> # ℹ 54 more rows
…
Avaliando o modelo

collect_metrics(credito_rs)

#> # A tibble: 192 × 9
#>    cost_complexity tree_depth min_n .metric  .estimator  mean     n std_err
#>              <dbl>      <int> <int> <chr>    <chr>      <dbl> <int>   <dbl>
#>  1    0.0000000001          1     2 accuracy binary     0.969     5 0.00192
#>  2    0.0000000001          1     2 kap      binary     0.358     5 0.0982 
#>  3    0.0000000001          1     2 roc_auc  binary     0.656     5 0.0434 
#>  4    0.0000001             1     2 accuracy binary     0.969     5 0.00192
#>  5    0.0000001             1     2 kap      binary     0.358     5 0.0982 
#>  6    0.0000001             1     2 roc_auc  binary     0.656     5 0.0434 
#>  7    0.0001                1     2 accuracy binary     0.969     5 0.00192
#>  8    0.0001                1     2 kap      binary     0.358     5 0.0982 
#>  9    0.0001                1     2 roc_auc  binary     0.656     5 0.0434 
#> 10    0.1                   1     2 accuracy binary     0.966     5 0.00147
#> # ℹ 182 more rows
#> # ℹ 1 more variable: .config <chr>
…
