IME05-12547 - Manipulação dos dados
…
filter(gap_07, country %in% c("Brazil", "Chile"))

# A tibble: 2 × 6
  country continent  year lifeExp       pop gdpPercap
  <fct>   <fct>     <int>   <dbl>     <int>     <dbl>
1 Brazil  Americas   2007    72.4 190010647     9066.
2 Chile   Americas   2007    78.6  16284741    13172.

Manipulando 2

Selecionando dados para 2007 excluindo a Oceania

filter(gapminder, year == 2007 & continent != "Oceania")

# A tibble: 140 × 6
   country     continent  year lifeExp       pop gdpPercap
   <fct>       <fct>     <int>   <dbl>     <int>     <dbl>
 1 Afghanistan Asia       2007    43.8  31889923      975.
 2 Albania     Europe     2007    76.4   3600523     5937.
 3 Algeria     Africa     2007    72.3  33333216     6223.
 4 Angola      Africa     2007    42.7  12420476     4797.
 5 Argentina   Americas   2007    75.3  40301927    12779.
 6 Austria     Europe     2007    79.8   8199783    36126.
 7 Bahrain     Asia       2007    75.6    708573    29796.
 8 Bangladesh  Asia       2007    64.1 150448339     1391.
 9 Belgium     Europe     2007    79.4  10392226    33693.
10 Benin       Africa     2007    56.7   8078314     1441.
# ℹ 130 more rows
…
# A tibble: 6 × 4
     TV Radio Newspaper Sales
  <dbl> <dbl>     <dbl> <dbl>
1 230.   37.8      69.2  22.1
2  44.5  39.3      45.1  10.4
3  17.2  45.9      69.3   9.3
4 152.   41.3      58.5  18.5
5 181.   10.8      58.4  12.9
6   8.7  48.9      75     7.2

propaganda <- propaganda %>% rename(Jornal = Newspaper, Vendas = Sales)
propaganda %>% tidyr::pivot_longer(!Vendas, names_to="Midia", values_to="Orcamento")

# A tibble: 600 × 3
   Vendas Midia  Orcamento
    <dbl> <chr>      <dbl>
 1   22.1 TV         230. 
 2   22.1 Radio       37.8
 3   22.1 Jornal      69.2
 4   10.4 TV          44.5
 5   10.4 Radio       39.3
 6   10.4 Jornal      45.1
 7    9.3 TV          17.2
 8    9.3 Radio       45.9
 9    9.3 Jornal      69.3
10   18.5 TV         152. 
# ℹ 590 more rows
…
# A tibble: 6 × 3
# Groups:   year [1]
   year genus           peso_medio
  <int> <chr>                <dbl>
1  1977 Chaetodipus          15.3 
2  1977 Dipodomys            52.5 
3  1977 Onychomys            21.4 
4  1977 Perognathus           7.17
5  1977 Peromyscus           19.5 
6  1977 Reithrodontomys      10   

pesquisa_gw %>% tidyr::pivot_wider(names_from="genus", values_from="peso_medio")

# A tibble: 26 × 11
# Groups:   year [26]
    year Chaetodipus Dipodomys Onychomys Perognathus Peromyscus Reithrodontomys
   <int>       <dbl>     <dbl>     <dbl>       <dbl>      <dbl>           <dbl>
 1  1977        15.3      52.5      21.4        7.17       19.5           10   
 2  1978        14.9      73.9      26.5        7.09       20.5            7.5 
 3  1979        15.1      74.9      27.4        7.53       21.3            8.33
 4  1980        14.2      73.1      28.3        7.46       22.4           10.2 
 5  1981        14.0      72.7      28.4        7.15       20.4           11.2 
 6  1982        16.1      66.3      29.9        6.92       21.3           10.5 
 7  1983        15.5      65.0      29.0        6.83       21.5            9.87
 8  1984        15.3      52.8      28.3       16.9        20.0           11.2 
 9  1985        15.8      51.1      28.1       32.7        20.0            8.37
10  1986        16.8      56.4      27.5       18.3        22.1           10.8 
# ℹ 16 more rows
# ℹ 4 more variables: Neotoma <dbl>, Sigmodon <dbl>, Spermophilus <dbl>,
#   Baiomys <dbl>
…
